[
  {
    "customerId": "74103",
    "first_name": "Gerhardine",
    "last_name": "Aird",
    "email": "gaird0@cnn.com",
    "gender": "Female",
    "university": "Universiti Teknikal Malaysia Melaka",
    "nationality": "Malaysia"
  },
  {
    "customerId": "99660",
    "first_name": "Padraic",
    "last_name": "Pritchitt",
    "email": "ppritchitt1@yelp.com",
    "gender": "Male",
    "university": "University of the Faroe Islands",
    "nationality": "Faroe Islands"
  },
  {
    "customerId": "85400",
    "first_name": "Brett",
    "last_name": "Challener",
    "email": "bchallener2@buzzfeed.com",
    "gender": "Female",
    "university": "Universidad Agraria del Ecuador",
    "nationality": "Ecuador"
  },
  {
    "customerId": "3804",
    "first_name": "Ariadne",
    "last_name": "Grabbam",
    "email": "agrabbam3@oakley.com",
    "gender": "Female",
    "university": "Université de Montpellier I",
    "nationality": "France"
  },
  {
    "customerId": "1518",
    "first_name": "Reggis",
    "last_name": "Robinette",
    "email": "rrobinette4@digg.com",
    "gender": "Male",
    "university": "University of Cambodia",
    "nationality": "Cambodia"
  },
  {
    "customerId": "94434",
    "first_name": "Tirrell",
    "last_name": "Casol",
    "email": "tcasol5@ezinearticles.com",
    "gender": "Male",
    "university": "Guizhou Normal University",
    "nationality": "China"
  },
  {
    "customerId": "9563",
    "first_name": "Enrico",
    "last_name": "Shee",
    "email": "eshee6@hhs.gov",
    "gender": "Male",
    "university": "Universidade Moderna de Lisboa",
    "nationality": "Portugal"
  },
  {
    "customerId": "85189",
    "first_name": "Alex",
    "last_name": "Willstrop",
    "email": "awillstrop7@theatlantic.com",
    "gender": "Male",
    "university": "Instituto Politécnico de Portalegre",
    "nationality": "Portugal"
  },
  {
    "customerId": "V351",
    "first_name": "Karmen",
    "last_name": "Rebert",
    "email": "krebert8@ovh.net",
    "gender": "Female",
    "university": "Philippine Normal University",
    "nationality": "Philippines"
  },
  {
    "customerId": "53201",
    "first_name": "James",
    "last_name": "Ruselin",
    "email": "jruselin9@tripadvisor.com",
    "gender": "Male",
    "university": "Universitas Trisakti",
    "nationality": "Indonesia"
  },
  {
    "customerId": "2535",
    "first_name": "Moishe",
    "last_name": "Bednall",
    "email": "mbednalla@auda.org.au",
    "gender": "Male",
    "university": "Music Academy \"Karol Szymanowski\" in Katowice",
    "nationality": "Poland"
  },
  {
    "customerId": "33182",
    "first_name": "Sherm",
    "last_name": "Haspineall",
    "email": "shaspineallb@a8.net",
    "gender": "Male",
    "university": "Music Academy \"Fryderyk Chopin\" in Warszaw",
    "nationality": "Poland"
  },
  {
    "customerId": "56721",
    "first_name": "Chicky",
    "last_name": "Veevers",
    "email": "cveeversc@cnbc.com",
    "gender": "Male",
    "university": "Göteborg University",
    "nationality": "Sweden"
  },
  {
    "customerId": "2250",
    "first_name": "Bendicty",
    "last_name": "Iacovo",
    "email": "biacovod@upenn.edu",
    "gender": "Male",
    "university": "Akita University of Economics and Law",
    "nationality": "Japan"
  },
  {
    "customerId": "27661",
    "first_name": "Vannie",
    "last_name": "Huard",
    "email": "vhuarde@cdc.gov",
    "gender": "Female",
    "university": "Kathmandu University",
    "nationality": "Nepal"
  },
  {
    "customerId": "8076",
    "first_name": "Nahum",
    "last_name": "Hamshar",
    "email": "nhamsharf@slate.com",
    "gender": "Male",
    "university": "Shandong University of Art and Design",
    "nationality": "China"
  },
  {
    "customerId": "8797",
    "first_name": "Thomasa",
    "last_name": "Goodisson",
    "email": "tgoodissong@paypal.com",
    "gender": "Female",
    "university": "Lappeenranta University of Technology",
    "nationality": "Finland"
  },
  {
    "customerId": "56201",
    "first_name": "Archy",
    "last_name": "Haskell",
    "email": "ahaskellh@deliciousdays.com",
    "gender": "Male",
    "university": "Medical Academy in Lublin",
    "nationality": "Poland"
  },
  {
    "customerId": "71295",
    "first_name": "Pepita",
    "last_name": "Gadeaux",
    "email": "pgadeauxi@multiply.com",
    "gender": "Female",
    "university": "Heythrop College, University of London",
    "nationality": "United Kingdom"
  },
  {
    "customerId": "67182",
    "first_name": "Brien",
    "last_name": "Bahike",
    "email": "bbahikej@usgs.gov",
    "gender": "Male",
    "university": "National University of Lesotho",
    "nationality": "Lesotho"
  },
  {
    "customerId": "V1502",
    "first_name": "Dud",
    "last_name": "McMenamy",
    "email": "dmcmenamyk@webs.com",
    "gender": "Male",
    "university": "Changchun University of Technology",
    "nationality": "China"
  },
  {
    "customerId": "66602",
    "first_name": "Roley",
    "last_name": "Jury",
    "email": "rjuryl@qq.com",
    "gender": "Male",
    "university": "Universitas Persada Indonesia Y.A.I",
    "nationality": "Indonesia"
  },
  {
    "customerId": "65533",
    "first_name": "Waylen",
    "last_name": "Ladlow",
    "email": "wladlowm@msn.com",
    "gender": "Male",
    "university": "Norwegian University of Life Sciences",
    "nationality": "Norway"
  },
  {
    "customerId": "04672",
    "first_name": "Polly",
    "last_name": "Blabie",
    "email": "pblabien@yale.edu",
    "gender": "Female",
    "university": "Leon Kozminski Academy of Entrepreneurship and Mangement",
    "nationality": "Poland"
  },
  {
    "customerId": "71589",
    "first_name": "Christy",
    "last_name": "Kainz",
    "email": "ckainzo@comsenz.com",
    "gender": "Female",
    "university": "Universidade Estadual Sudoeste da Bahia",
    "nationality": "Brazil"
  },
  {
    "customerId": "9538",
    "first_name": "Sondra",
    "last_name": "Shipton",
    "email": "sshiptonp@hubpages.com",
    "gender": "Female",
    "university": "Universitas Airlangga",
    "nationality": "Indonesia"
  },
  {
    "customerId": "33721",
    "first_name": "Fran",
    "last_name": "Jurisch",
    "email": "fjurischq@g.co",
    "gender": "Female",
    "university": "Nippon Dental University",
    "nationality": "Japan"
  },
  {
    "customerId": "74782",
    "first_name": "Kora",
    "last_name": "Vaissiere",
    "email": "kvaissierer@miibeian.gov.cn",
    "gender": "Female",
    "university": "The University of Nottingham Ningbo China",
    "nationality": "China"
  },
  {
    "customerId": "52130",
    "first_name": "Marylee",
    "last_name": "Oddy",
    "email": "moddys@ed.gov",
    "gender": "Female",
    "university": " Dedan Kimathi University of Technology",
    "nationality": "Kenya"
  },
  {
    "customerId": "52402",
    "first_name": "Hagan",
    "last_name": "Aronowitz",
    "email": "haronowitzt@nymag.com",
    "gender": "Male",
    "university": "Universidad de Camagüey",
    "nationality": "Cuba"
  },
  {
    "customerId": "1360",
    "first_name": "Wilmer",
    "last_name": "Pitkaithly",
    "email": "wpitkaithlyu@netvibes.com",
    "gender": "Male",
    "university": "Textile Institute of Pakistan",
    "nationality": "Pakistan"
  },
  {
    "customerId": "8403",
    "first_name": "Zita",
    "last_name": "Chesterton",
    "email": "zchestertonv@senate.gov",
    "gender": "Female",
    "university": "University of Ostrava",
    "nationality": "Czech Republic"
  },
  {
    "customerId": "9539",
    "first_name": "Jaquenetta",
    "last_name": "Dunbar",
    "email": "jdunbarw@wikispaces.com",
    "gender": "Female",
    "university": "Universitas 17 Agustus 1945 Banyuwangi",
    "nationality": "Indonesia"
  },
  {
    "customerId": "36081",
    "first_name": "Lyell",
    "last_name": "Consterdine",
    "email": "lconsterdinex@amazon.co.jp",
    "gender": "Male",
    "university": "Athabasca University",
    "nationality": "Canada"
  },
  {
    "customerId": "9778",
    "first_name": "Forest",
    "last_name": "Learoyde",
    "email": "flearoydey@bbb.org",
    "gender": "Male",
    "university": "Institute of Commerce and Business",
    "nationality": "Mongolia"
  },
  {
    "customerId": "V1090",
    "first_name": "Fayth",
    "last_name": "Vasyatkin",
    "email": "fvasyatkinz@hugedomains.com",
    "gender": "Female",
    "university": "Universitas Kristen Satya Wacana",
    "nationality": "Indonesia"
  },
  {
    "customerId": "3029",
    "first_name": "Lauryn",
    "last_name": "Lavery",
    "email": "llavery10@baidu.com",
    "gender": "Female",
    "university": "International University of Travnik",
    "nationality": "Bosnia and Herzegovina"
  },
  {
    "customerId": "8785",
    "first_name": "Walsh",
    "last_name": "Shill",
    "email": "wshill11@gizmodo.com",
    "gender": "Male",
    "university": "Colegio de San Juan de Letran",
    "nationality": "Philippines"
  },
  {
    "customerId": "63532",
    "first_name": "Emlyn",
    "last_name": "Beedie",
    "email": "ebeedie12@fda.gov",
    "gender": "Male",
    "university": "Guangdong Polytechnic Normal University",
    "nationality": "China"
  },
  {
    "customerId": "36859",
    "first_name": "Merle",
    "last_name": "Curgenven",
    "email": "mcurgenven13@independent.co.uk",
    "gender": "Female",
    "university": "China Medical University Shenyang",
    "nationality": "China"
  },
  {
    "customerId": "01085",
    "first_name": "Xavier",
    "last_name": "Cuddihy",
    "email": "xcuddihy14@mapquest.com",
    "gender": "Male",
    "university": "Brjansk State Technical University",
    "nationality": "Russia"
  },
  {
    "customerId": "7961",
    "first_name": "Gav",
    "last_name": "Sear",
    "email": "gsear15@mlb.com",
    "gender": "Male",
    "university": "Pontifícia Universidade Católica do Rio Grande do Sul",
    "nationality": "Brazil"
  },
  {
    "customerId": "2454",
    "first_name": "Woodman",
    "last_name": "Bellenie",
    "email": "wbellenie16@java.com",
    "gender": "Male",
    "university": "Cape Peninsula University of Technology",
    "nationality": "South Africa"
  },
  {
    "customerId": "94301",
    "first_name": "Bambi",
    "last_name": "Hedgecock",
    "email": "bhedgecock17@chron.com",
    "gender": "Female",
    "university": "Columbia College South Carolina",
    "nationality": "United States"
  },
  {
    "customerId": "74769",
    "first_name": "Jacintha",
    "last_name": "Hestrop",
    "email": "jhestrop18@examiner.com",
    "gender": "Female",
    "university": "Moscow State University M.V. Lomonosov",
    "nationality": "Russia"
  },
  {
    "customerId": "E0072",
    "first_name": "Wendel",
    "last_name": "Bestall",
    "email": "wbestall19@biglobe.ne.jp",
    "gender": "Male",
    "university": "DEI Bachelor & Master Degrees",
    "nationality": "Greece"
  },
  {
    "customerId": "7913",
    "first_name": "Shalne",
    "last_name": "Vicker",
    "email": "svicker1a@wiley.com",
    "gender": "Female",
    "university": "Isabela State University",
    "nationality": "Philippines"
  },
  {
    "customerId": "5528",
    "first_name": "Clive",
    "last_name": "Bleddon",
    "email": "cbleddon1b@prnewswire.com",
    "gender": "Male",
    "university": "Saratov State Medical University",
    "nationality": "Russia"
  },
  {
    "customerId": "63742",
    "first_name": "Benedikt",
    "last_name": "Gaskin",
    "email": "bgaskin1c@vkontakte.ru",
    "gender": "Male",
    "university": "Chengdu University of Traditional Chinese Medicine",
    "nationality": "China"
  },
  {
    "customerId": "61805",
    "first_name": "Nicoli",
    "last_name": "Duxbury",
    "email": "nduxbury1d@weather.com",
    "gender": "Female",
    "university": "Ternopil Academy of National Economy",
    "nationality": "Ukraine"
  },
  {
    "customerId": "E8521",
    "first_name": "Fonzie",
    "last_name": "Lent",
    "email": "flent1e@technorati.com",
    "gender": "Male",
    "university": "Faculdades Integradas Curitiba",
    "nationality": "Brazil"
  },
  {
    "customerId": "0951",
    "first_name": "Glenna",
    "last_name": "Imesen",
    "email": "gimesen1f@hubpages.com",
    "gender": "Female",
    "university": "St. Mary's University",
    "nationality": "Canada"
  },
  {
    "customerId": "8621",
    "first_name": "Masha",
    "last_name": "Lambrechts",
    "email": "mlambrechts1g@last.fm",
    "gender": "Female",
    "university": "Universitas Sumatera Utara",
    "nationality": "Indonesia"
  },
  {
    "customerId": "84510",
    "first_name": "Nappy",
    "last_name": "Deener",
    "email": "ndeener1h@yahoo.com",
    "gender": "Male",
    "university": "IDRAC (Institut de recherche en action commerciale)",
    "nationality": "France"
  },
  {
    "customerId": "71169",
    "first_name": "Nadean",
    "last_name": "Petruskevich",
    "email": "npetruskevich1i@webeden.co.uk",
    "gender": "Female",
    "university": "Physical Education Academy in Wroclaw",
    "nationality": "Poland"
  },
  {
    "customerId": "2352",
    "first_name": "Filbert",
    "last_name": "Eakin",
    "email": "feakin1j@examiner.com",
    "gender": "Male",
    "university": "Politeknik Negeri Jakarta",
    "nationality": "Indonesia"
  },
  {
    "customerId": "6039",
    "first_name": "Dennis",
    "last_name": "Reeson",
    "email": "dreeson1k@eepurl.com",
    "gender": "Male",
    "university": "Technical University of Warsaw",
    "nationality": "Poland"
  },
  {
    "customerId": "71981",
    "first_name": "Irena",
    "last_name": "Estoile",
    "email": "iestoile1l@lulu.com",
    "gender": "Female",
    "university": "Busoga University",
    "nationality": "Uganda"
  },
  {
    "customerId": "80493",
    "first_name": "Temple",
    "last_name": "Froud",
    "email": "tfroud1m@baidu.com",
    "gender": "Male",
    "university": "Agriculture and Forestry University",
    "nationality": "Nepal"
  },
  {
    "customerId": "27951",
    "first_name": "Shay",
    "last_name": "Chevers",
    "email": "schevers1n@bluehost.com",
    "gender": "Male",
    "university": "Universidad Cientifica del Sur",
    "nationality": "Peru"
  },
  {
    "customerId": "38119",
    "first_name": "Nataline",
    "last_name": "Bris",
    "email": "nbris1o@census.gov",
    "gender": "Female",
    "university": "Shannon College of Hotel Management",
    "nationality": "Ireland"
  },
  {
    "customerId": "6219",
    "first_name": "Fan",
    "last_name": "Minty",
    "email": "fminty1p@businessweek.com",
    "gender": "Female",
    "university": "Instituto Superior Minero Metalúrgico \"Dr. Antonio Núñez Jiménez\"",
    "nationality": "Cuba"
  },
  {
    "customerId": "24980",
    "first_name": "Micaela",
    "last_name": "Finden",
    "email": "mfinden1q@surveymonkey.com",
    "gender": "Female",
    "university": "Chengdu Institute of Sichuan International Studies University",
    "nationality": "China"
  },
  {
    "customerId": "72665",
    "first_name": "Ava",
    "last_name": "Innocenti",
    "email": "ainnocenti1r@imdb.com",
    "gender": "Female",
    "university": "Chuvash State University",
    "nationality": "Russia"
  },
  {
    "customerId": "30011",
    "first_name": "Finley",
    "last_name": "Giamuzzo",
    "email": "fgiamuzzo1s@t.co",
    "gender": "Male",
    "university": "Universidade de Marília",
    "nationality": "Brazil"
  },
  {
    "customerId": "9463",
    "first_name": "Muriel",
    "last_name": "Sterry",
    "email": "msterry1t@imdb.com",
    "gender": "Female",
    "university": "Faculdade Integradas do Ceará",
    "nationality": "Brazil"
  },
  {
    "customerId": "25040",
    "first_name": "Mignonne",
    "last_name": "Lerwell",
    "email": "mlerwell1u@umn.edu",
    "gender": "Female",
    "university": "Adeyemi College of Education",
    "nationality": "Nigeria"
  },
  {
    "customerId": "6806",
    "first_name": "Amargo",
    "last_name": "Fairney",
    "email": "afairney1v@newsvine.com",
    "gender": "Female",
    "university": "Tabriz University of Medical Sciences",
    "nationality": "Iran"
  },
  {
    "customerId": "5521",
    "first_name": "Rayner",
    "last_name": "Boycott",
    "email": "rboycott1w@gravatar.com",
    "gender": "Male",
    "university": "Université de Toliary",
    "nationality": "Madagascar"
  },
  {
    "customerId": "48812",
    "first_name": "Emilia",
    "last_name": "Fishpoole",
    "email": "efishpoole1x@usa.gov",
    "gender": "Female",
    "university": "Instituto Superior de Ciências do Trabalho e da Empresa",
    "nationality": "Portugal"
  },
  {
    "customerId": "31532",
    "first_name": "Early",
    "last_name": "Yitzhakof",
    "email": "eyitzhakof1y@mozilla.org",
    "gender": "Male",
    "university": "Université Lumiére (Lyon II)",
    "nationality": "France"
  },
  {
    "customerId": "E8376",
    "first_name": "Marnie",
    "last_name": "Trahar",
    "email": "mtrahar1z@marriott.com",
    "gender": "Female",
    "university": "Universitas Amir Hamzah",
    "nationality": "Indonesia"
  },
  {
    "customerId": "78838",
    "first_name": "Courtney",
    "last_name": "Winchcomb",
    "email": "cwinchcomb20@weebly.com",
    "gender": "Male",
    "university": "Universitas Pesantren Darul Ulum Jombang",
    "nationality": "Indonesia"
  },
  {
    "customerId": "E8497",
    "first_name": "Monah",
    "last_name": "Jahndel",
    "email": "mjahndel21@yelp.com",
    "gender": "Female",
    "university": "Instituto Superior Minero Metalúrgico \"Dr. Antonio Núñez Jiménez\"",
    "nationality": "Cuba"
  },
  {
    "customerId": "3076",
    "first_name": "Stefanie",
    "last_name": "Serrels",
    "email": "sserrels22@geocities.com",
    "gender": "Female",
    "university": "Universitas Negeri Malang",
    "nationality": "Indonesia"
  },
  {
    "customerId": "E9385",
    "first_name": "Cazzie",
    "last_name": "Beeze",
    "email": "cbeeze23@tuttocitta.it",
    "gender": "Male",
    "university": "Universitas Riau",
    "nationality": "Indonesia"
  },
  {
    "customerId": "0220",
    "first_name": "Claude",
    "last_name": "Jendas",
    "email": "cjendas24@ow.ly",
    "gender": "Female",
    "university": "Kazan State Music Conservatory",
    "nationality": "Russia"
  },
  {
    "customerId": "94234",
    "first_name": "Tucky",
    "last_name": "Aiken",
    "email": "taiken25@tinyurl.com",
    "gender": "Male",
    "university": "Odlar Yurdu University",
    "nationality": "Azerbaijan"
  },
  {
    "customerId": "V585",
    "first_name": "Vernor",
    "last_name": "Culver",
    "email": "vculver26@smugmug.com",
    "gender": "Male",
    "university": "Ningbo University of Technology",
    "nationality": "China"
  },
  {
    "customerId": "71597",
    "first_name": "Pris",
    "last_name": "Tenpenny",
    "email": "ptenpenny27@samsung.com",
    "gender": "Female",
    "university": "Fushun Petroleum University",
    "nationality": "China"
  },
  {
    "customerId": "85256",
    "first_name": "Jae",
    "last_name": "McGhee",
    "email": "jmcghee28@delicious.com",
    "gender": "Male",
    "university": "Qiongzhou University",
    "nationality": "China"
  },
  {
    "customerId": "36257",
    "first_name": "Ange",
    "last_name": "Livingstone",
    "email": "alivingstone29@blinklist.com",
    "gender": "Male",
    "university": "Jilin Agricultural University",
    "nationality": "China"
  },
  {
    "customerId": "66330",
    "first_name": "Agnes",
    "last_name": "Housego",
    "email": "ahousego2a@omniture.com",
    "gender": "Female",
    "university": "North-West State Technical University",
    "nationality": "Russia"
  },
  {
    "customerId": "65482",
    "first_name": "Spencer",
    "last_name": "Meedendorpe",
    "email": "smeedendorpe2b@ifeng.com",
    "gender": "Male",
    "university": "National University",
    "nationality": "Philippines"
  },
  {
    "customerId": "75241",
    "first_name": "Trstram",
    "last_name": "Trenbay",
    "email": "ttrenbay2c@yelp.com",
    "gender": "Male",
    "university": "Universidad Bellas Artes",
    "nationality": "Colombia"
  },
  {
    "customerId": "73300",
    "first_name": "Mar",
    "last_name": "Dunnan",
    "email": "mdunnan2d@adobe.com",
    "gender": "Male",
    "university": "Universidad de la Empresa (UDE)",
    "nationality": "Uruguay"
  },
  {
    "customerId": "2326",
    "first_name": "Lamond",
    "last_name": "Consterdine",
    "email": "lconsterdine2e@biglobe.ne.jp",
    "gender": "Male",
    "university": "Instituto Politécnico de Beja",
    "nationality": "Portugal"
  },
  {
    "customerId": "56986",
    "first_name": "Levin",
    "last_name": "Northall",
    "email": "lnorthall2f@naver.com",
    "gender": "Male",
    "university": "Khabarovsk State University of Technology",
    "nationality": "Russia"
  },
  {
    "customerId": "6251",
    "first_name": "Eden",
    "last_name": "Hurley",
    "email": "ehurley2g@histats.com",
    "gender": "Female",
    "university": "Orkhon University",
    "nationality": "Mongolia"
  },
  {
    "customerId": "41061",
    "first_name": "Dorri",
    "last_name": "Blenkinsopp",
    "email": "dblenkinsopp2h@abc.net.au",
    "gender": "Female",
    "university": "Aria Institute of Higher Education",
    "nationality": "Afghanistan"
  },
  {
    "customerId": "78862",
    "first_name": "Veda",
    "last_name": "Schreurs",
    "email": "vschreurs2i@newyorker.com",
    "gender": "Female",
    "university": "Universidad de San Carlos de Guatemala",
    "nationality": "Guatemala"
  },
  {
    "customerId": "1830",
    "first_name": "Nathan",
    "last_name": "Wison",
    "email": "nwison2j@cmu.edu",
    "gender": "Male",
    "university": "Shandong Medical University",
    "nationality": "China"
  },
  {
    "customerId": "2528",
    "first_name": "Cord",
    "last_name": "Ebbin",
    "email": "cebbin2k@ebay.co.uk",
    "gender": "Male",
    "university": "Ho Chi Minh City Open University",
    "nationality": "Vietnam"
  },
  {
    "customerId": "V1062",
    "first_name": "Haskel",
    "last_name": "Withrington",
    "email": "hwithrington2l@wisc.edu",
    "gender": "Male",
    "university": "Hellenic Army Academy",
    "nationality": "Greece"
  },
  {
    "customerId": "E9434",
    "first_name": "Saleem",
    "last_name": "Hischke",
    "email": "shischke2m@stanford.edu",
    "gender": "Male",
    "university": "Instituto Superior de Informática e Gestão",
    "nationality": "Portugal"
  },
  {
    "customerId": "E8174",
    "first_name": "Kenyon",
    "last_name": "Reames",
    "email": "kreames2n@hc360.com",
    "gender": "Male",
    "university": "Faculdades Integradas Toledo",
    "nationality": "Brazil"
  },
  {
    "customerId": "65361",
    "first_name": "Anetta",
    "last_name": "Chivrall",
    "email": "achivrall2o@xinhuanet.com",
    "gender": "Female",
    "university": "Davao Doctors College",
    "nationality": "Philippines"
  },
  {
    "customerId": "4160",
    "first_name": "Kiele",
    "last_name": "Cornu",
    "email": "kcornu2p@cisco.com",
    "gender": "Female",
    "university": "Taiyuan University of Technology",
    "nationality": "China"
  },
  {
    "customerId": "E9063",
    "first_name": "Loydie",
    "last_name": "Coleshill",
    "email": "lcoleshill2q@dyndns.org",
    "gender": "Male",
    "university": "Universitas Bhayangkara Jakarta Raya",
    "nationality": "Indonesia"
  },
  {
    "customerId": "9633",
    "first_name": "Gertie",
    "last_name": "Le-Good",
    "email": "glegood2r@sciencedirect.com",
    "gender": "Female",
    "university": "Universidade de Tras-os-Montes e Alto Douro",
    "nationality": "Portugal"
  }
]
